…
print(tweets_per_source_per_year)
```

::: {.output .stream .stderr}
    `summarise()` has grouped output by 'Year'. You can override using the
    `.groups` argument.
:::

::: {.output .stream .stdout}
    # A tibble: 44 × 3
        Year Source             Count
       <dbl> <chr>              <int>
     1  2011 MSN Health News     1307
     2  2011 Good Health          104
     3  2011 LA Times Health      104
     4  2012 MSN Health News     1892
     5  2012 Good Health         1203
     6  2012 LA Times Health     1203
     7  2012 CNN Health           650
     8  2012 NPR Health           473
     9  2012 Kaiser Health News   264
    10  2013 Everyday Health     3239
    # ℹ 34 more rows
…
::: {.cell .code execution_count="24" colab="{\"base_uri\":\"https://localhost:8080/\"}" id="O4248K7dUjD_" outputId="342b5280-3329-44db-9d53-9f32327b182f"}
``` python
data_2014 <- data_2014 %>%
  filter(!Source %in% c("Fox News Health", "US News Health"))

write.csv(data_2014, "data_2014.csv", row.names = FALSE)

print(data_2014)
```

::: {.output .stream .stdout}
    # A tibble: 25,096 × 5
            ID Source             Date                Content                   Year
         <dbl> <chr>              <dttm>              <chr>                    <dbl>
     1 5.50e17 Kaiser Health News 2014-12-30 15:35:22 "RT @cspanwj: VIDEO: @j…  2014
     2 5.50e17 Kaiser Health News 2014-12-29 17:09:33 "How A State\u0092s Cho…  2014
     3 5.48e17 Kaiser Health News 2014-12-24 14:52:02 "Some doctors who treat…  2014
     4 5.48e17 Kaiser Health News 2014-12-24 14:49:27 "Ebola Doctor Makes Tou…  2014
     5 5.48e17 Kaiser Health News 2014-12-24 14:48:55 "DETAILS: FDA Proposes …  2014
     6 5.47e17 Kaiser Health News 2014-12-23 20:20:43 "Millions Have Already …  2014
     7 5.47e17 Kaiser Health News 2014-12-23 18:47:31 "Readers Ask: Can I Kee…  2014
     8 5.47e17 Kaiser Health News 2014-12-23 18:38:09 "Some #Medicaid docs ar…  2014
     9 5.47e17 Kaiser Health News 2014-12-22 22:27:35 "Is Your Heart Doctor I…  2014
    10 5.46e17 Kaiser Health News 2014-12-19 21:02:58 ".@mandrews110 answers …  2014
    # ℹ 25,086 more rows
…
